…
    colnames(adult_data) <- c("age", "workclass", "fnlwgt", "education", "education_num", "marital_status", "occupation", "relationship", "race", "sex", "capital_gains", "capital_loss", "hours_per_week", "native_country", "unk")

    adult_data

    ## # A tibble: 32,561 x 15
    ##      age workc… fnlwgt educa… educa… marita… occu… rela… race  sex   capi…
    ##    <int> <chr>   <int> <chr>   <int> <chr>   <chr> <chr> <chr> <chr> <int>
    ##  1    39 State…  77516 Bache…     13 Never-… Adm-… Not-… White Male   2174
    ##  2    50 Self-…  83311 Bache…     13 Marrie… Exec… Husb… White Male      0
    ##  3    38 Priva… 215646 HS-gr…      9 Divorc… Hand… Not-… White Male      0
    ##  4    53 Priva… 234721 11th        7 Marrie… Hand… Husb… Black Male      0
    ##  5    28 Priva… 338409 Bache…     13 Marrie… Prof… Wife  Black Fema…     0
    ##  6    37 Priva… 284582 Maste…     14 Marrie… Exec… Wife  White Fema…     0
    ##  7    49 Priva… 160187 9th         5 Marrie… Othe… Not-… Black Fema…     0
    ##  8    52 Self-… 209642 HS-gr…      9 Marrie… Exec… Husb… White Male      0
    ##  9    31 Priva…  45781 Maste…     14 Never-… Prof… Not-… White Fema… 14084
    ## 10    42 Priva… 159449 Bache…     13 Marrie… Exec… Husb… White Male   5178
    ## # ... with 32,551 more rows, and 4 more variables: capital_loss <int>,
    ## #   hours_per_week <int>, native_country <chr>, unk <chr>
…
